Reproducing Manylabs Results
…
d_condition2 <- d %>% 
  filter(condition == "condition_2") %>%
  rename(
    true_attitude = miya2.4, 
    average = miya2.6, 
    constraint = miya2.7, 
    persuasive = miya2.8
  )

d_cleaned <- bind_rows(d_condition1, d_condition2) %>% 
  select(.id, ResponseID, Country, Language, Weird, condition, true_attitude, average, constraint, persuasive)

d_cleaned 

## # A tibble: 2,419 x 10
##    .id        ResponseID  Country Language Weird condition true_attitude average
##    <chr>      <chr>       <chr>   <chr>    <dbl> <chr>             <dbl>   <dbl>
##  1 ML2_Slate R_0jsBYzHr Brazil  Portugu     0 conditio            13      12
##  2 ML2_Slate R_bKrfQzSl Brazil  Portugu     0 conditio            14      12
##  3 ML2_Slate R_0x1MrDkW Brazil  Portugu     0 conditio            15       8
##  4 ML2_Slate R_3Wtat6Ch Brazil  Portugu     0 conditio             8       8
##  5 ML2_Slate R_7Ql9fUfH Brazil  Portugu     0 conditio            NA      NA
##  6 ML2_Slate R_0fhpY7Ci Brazil  Portugu     0 conditio            15       8
##  7 ML2_Slate R_6m37xbex Brazil  Portugu     0 conditio             9       6
##  8 ML2_Slate R_7PUKCjwt Brazil  Portugu     0 conditio            15      11
##  9 ML2_Slate R_3Jyl9cxL Brazil  Portugu     0 conditio            12       1
## 10 ML2_Slate R_7V7f89ef Brazil  Portugu     0 conditio             8       9
## #  with 2,409 more rows, and 2 more variables: constraint <dbl>,
## #   persuasive <dbl>
…
